{
  "type": "service_account",
  "project_id": "evident-224520",
  "private_key_id": "b078dc00f01c7d5fdcca779f21c940c39474d9a0",
  "private_key": "-----BEGIN PRIVATE KEY-----\nMIIEvgIBADANBgkqhkiG9w0BAQEFAASCBKgwggSkAgEAAoIBAQCnEP1TRlSWeb/q\n+XwuEVjBPCxtwhJWe7wAb9vnRAJCKn2vuaVL0CQcJMZOX76FysR1eCbAcMC1ftAf\ncBL38novj0Gec6+0Vc7aT/CASaAfuJnF9RdRxO3pdWQKVqzxNyb340jA/eg4+bZ/\n6mWTCZ9bPTyR6qJLQUeXjaTaDIDo+LEEG1TyZHYnvhG6dFwhvYZItJ2CElyh/sqr\nN5HHC5/c7OkNQkFS4cBYD9zNofGr4i6L5ShuSxXbJ/fpVR9D/cKGZaSmj7udg0RW\nY4ZAZj4gvgDwsFh1leZ37eBeIG98p1wMc6lZ+BZPKXWp63LjLSsGzfrijMsenAJe\nnd6uQnvNAgMBAAECggEAEqx2JFYQI7b9b1OY6xf1RmQQyJPmCNSmcZtkhmJg/j78\nSCVasdv/V/CkWc5J4BqHVboAWtzqLV88qXGVgoa6huZe/J8MXKkwCHw28vVHze6M\nVvF2PHrj54cU5N2bUbr1wsTHimAsZ3HspuTu8D3Qb2+rfYPZxXTz0595dbCVbXTF\n1EgHV/Lk/CLe265cATCR7TuFSNJY/2eDl/Jzob2nVqcQhiaN1kgUbh5kX4AcHHFT\nZcW8MV+9fnZWs+ziSO3iPNjKHsU/cifyiNT7RfDnuiCyrrr6dtwoGRXm1xLjvk0H\nsncQjyXo2FgoOoDulnIWfWcwHWl5J6VeyRhE6hAd4QKBgQDUyjZfbppH1J/99pjc\ns6TUSveVDeL8GB6s14uyFsePfGXDnTb/xyrwQn9b2WiUG4kpIEIRBn45s10SLnTL\nfqrTMwRZEm29gYK1qr5G5TFAjFEhZv+xAarqiEezRhand5ODvwYZs+vjXViD5Mf6\ndLPuaHmxATYwDYGCSf0m2wHEIwKBgQDI/dwqWxRgT004oHLCoz4kmgS0DlakCr4u\nzoVadojlQ8mHM2hnBs0Vk153JjR8h/TwHGJBACA2tU+z4tLgeY1xO+IHv/STtEzP\nsRFM9BVLGmvdyYP5HlJ23D3lcPoGyj74SP98+rhTb8cLxWCo6dZBwwj7h+k/a12P\ngtCAkt4HTwKBgQDUM8P9b4MT1wqmbWEL12qs+wXj8zFFTZhprZp2QxlIEjo51XKf\nqLM9XlM7+Ze8+6jRBoZcDCmcyS4rj4CR3wPkEqBnY2Vk8t6y5E9UzANN56CQuvKK\nRqt3r+gw89hrsWe+nqUqxK6c0t4OyfxT3EYDntScnCS5zv40PCzkrssYGQKBgQDH\nQ9eZLn8/FKAMehYMnecoRoJPOL/xFq2CnkFbdJU4J0KPhgoFyppcv6QyIHB83hWa\nT6mho8xMMOl6AHDtF9WA48utv0NthJ16c6QhVQQfV2yFkBoFS2iaarP6200mmjBf\n249givlfzzvZka/JBzviKsinBxHaTEmP1DN+pRz2xQKBgF0vrWos4Zhr6GNYbHsV\nOetEyF4VX/14G3nuAE70MSfpvZ4enBMceqFANYyRph/F0We9F3DVglyKg2K13X4Z\n+eDlnyFqlOiDsaWzwwRNJAhbZWmLqbZKtUNpEp197vSE8JMP6pd7rRFrDKmA0vEU\nfHfsoqHLamyAbvTTx8qqBj1A\n-----END PRIVATE KEY-----\n",
  "client_email": "evident@evident-224520.iam.gserviceaccount.com",
  "client_id": "100449927469224963185",
  "auth_uri": "https://accounts.google.com/o/oauth2/auth",
  "token_uri": "https://oauth2.googleapis.com/token",
  "auth_provider_x509_cert_url": "https://www.googleapis.com/oauth2/v1/certs",
  "client_x509_cert_url": "https://www.googleapis.com/robot/v1/metadata/x509/evident%40evident-224520.iam.gserviceaccount.com"
}
