[
	{"_id": 1, 
	"title": "SELANTES REALMENTE PREVINEM LESÕES DE CÁRIE EM DENTES PERMANENTES?",
	"url_image": "text1.jpg",
	"abstract": "Para se saber se os selantes realmente previnem lesões de cárie em dentes permanentes de crianças e adolescentes, e além disso, saber qual o material mais eficaz para se realizar o selamento, uma revisão sistemática analisou 34 estudos clínicos randomizados, feitos com crianças e adolescentes (2575 participantes), que tinham como objetivo avaliar o efeito preventivo de selantes em superfícies oclusais de molares e pré-molares permanentes. Foi avaliado diferentes tipos de material utilizado para o selamento, como ionômero de vidro, ionômero de vidro modificado por resina, resina modificada por ionômero de vidro. Encontrou-se que o selante aplicado em superfícies oclusais de crianças e adolescentes reduziu o desenvolvimento de lesões de cárie até 48 meses após a aplicação, se comparado com as superfícies que não receberam selante. Após esse tempo de acompanhamento, a quantidade e qualidade da evidência é reduzida. Também é possível afirmar que os selantes são efetivos em crianças com alto risco de cárie. Contudo evidências em outras condições ainda são escassas. Ainda não é possível afirmar qual o material mais eficaz para se realizar o selante. Essa revisão sistemática mostrou ainda que a maioria dos estudos preocupou-se mais em comparar a retenção dos materiais do que o efeito preventivo do selante, o que pode não estar sempre relacionado. Nos estudos também faltaram coletar informações que são relevantes para o desenvolvimento da doença, como o risco de cárie da população analisada e se havia concomitantemente ao estudo, uso de água e dentifrício fluoretados e orientações preventivas. O que se pode afirmar é que o selante aplicado em superfícies oclusais de crianças e adolescentes reduziu o desenvolvimento de lesões de cárie até 48 meses após a aplicação, se comparado com as superfícies que não receberam selante. Após esse tempo, a quantidade e qualidade da evidência é reduzida. Também é possível afirmar que os selantes são efetivos em crianças com alto risco de cárie. Contudo evidências em outras condições ainda são escassas. Ainda não é possível afirmar qual o material mais eficaz para se realizar o selante. Assim, o selante tem sim indicação para alguns casos (não precisando ser usado sempre e para tudo) e o dentista deve estar atento para colocar em prática essa evidência científica disponível nos dias de hoje. FONTE: Anneli Ahovuo-Saloranta, Helena Forss, Tanya Walsh, Anne Hiiri, Anne Nordblad, Marjukka Mäkelä, Helen V Worthington. Sealants for preventing dental decay in the permanent teeth- Intervention Review", 
	"methodologies": [1],
	"themes": [1, 3, 5, 7],
	"paper_link": "http://www.ncbi.nlm.nih.gov/pubmed/23543512",
	"abstract_authors": ["Gabriela", "Mariana Minatel Braga"],
	"paper_authors": ["Ahovuo-Saloranta A", "Forss H", "Walsh T", "Hiiri A", "Nordblad A", "Mäkelä M", "Worthington HV"],
	"study_relevance": 1,
	"posting_date":"2018-09-12 16:15:00",
	"last_update_date":"2018-09-12 16:15:00"},
	
	{"_id": 2, 
	"title": "A ESCOVA DE DENTE COM CERDAS EXTRA-LONGAS NA PONTA É UMA ALTERNATIVA VIÁVEL PARA A REMOÇÃO DE PLACA AO ESCOVAR SUPERFÍCIES OCLUSAIS DE MOLARES PERMANENTES EM ERUPÇÃO?",
	"url_image": "text2.jpg",
	"abstract": "Estudos mostram que a técnica de escovação transversal é mais eficaz no controle do biofilme de primeiros molares em erupção (1-4). Ela pode inclusive ser utilizada com qualquer tipo de escova e apresenta uma excelente relação custo-benefício em programas preventivos (5). Por outro lado, as escovas com cerdas mais longas na ponta poderiam ser uma alternativa que permitiria uma escovação anteroposterior com bom controle da placa, principalmente em crianças que realizam a higiene sozinhas, sem auxilio dos pais. No entanto, surgiram as dúvidas: será que a utilização de uma escova modificada pode trazer benefícios na remoção da placa, mesmo utilizando a técnica anteroposterior? O custo de se usar essa escova compensaria essas vantagens?Esse estudo, realizado como trabalho de mestrado e doutorado na Disciplina de Odontopediatria da FOUSP, sob orientação da Profa. Dra. Mariana Minatel Braga, teve por objetivo avaliar qual escova teria a melhor relação custo-eficácia na remoção da placa bacteriana da superfície oclusal dos primeiros molares permanentes em irrompimento. Tratam-se de dados preliminares, obtidos com parte da amostra, mas que pela significância dos achados mereceram ser relatados. Eles se encontram em um artigo recentemente enviado para publicação e parte deles, na dissertação de mestrado da pós-graduanda Alessandra Reyes. No entanto, é uma amostra pequena, que está sendo aumentada em sua tese de doutorado. Além disso, se preocupa apenas com redução de placa que seria um desfecho substituto e não o desfecho mais importante de se observar que seria o desenvolvimento/progressão de lesões de cárie.Nesse estudo, as crianças foram distribuídas aleatoriamente em dois grupos de acordo com o modo de escovação, que associava o tipo de escova de dente usada com a técnica:A. Anteroposterior, utilizando escovas de dente com cerdas extralongas na ponta.B. Escovação cruzada, utilizando escovas com as cerdas no mesmo plano.A pasta utilizada por todas as crianças continha flúor e os pais foram orientados a somente motivar as crianças para que realizassem a higiene. Foi verificada a presença de placa madura (vista com auxílio de um evidenciador) no dia da inclusão, 15, 30 e 90 dias depois e comparados durante esses retornos. Para calcular a viabilidade econômica, o custo e a deterioração das escovas foram considerados.Resultados: Inicialmente houve uma redução da placa madura semelhante nos dois grupos. Entretanto, com um acompanhamento por um período mais longo foi possível observar que com a escova modificada se conseguiu um resultado mais eficaz na remoção da placa, sendo que cerca de 10% das superfícies apresentaram menos placa madura. Por outro lado, além de ser mais cara, as escovas modificadas tiveram o desgaste maior das cerdas, o que implicaria em menor durabilidade. Assim, seria necessária maior frequência de troca durante a erupção dos molares, resultando em um maior gasto. Tudo isso foi numericamente considerado no cálculo do custo-eficácia e se percebeu que o custo adicional para que se mantivesse o uso da escova com cerdas longas na ponta durante a erupção não compensaria o pequeno benefício adicional conseguido com o uso da mesma para remoção de placa.FONTE: Reyes A; Novaes TF; Matos R; Gimenez T; Imparato JCP; Mendes FM; Braga MM. IS THE TIP WITH ESTRA-LONG BRISTLES A FEASIBLE ALTERNATIVE FOR PLAQUE REMOVAL WHEN BRUSHING OCCLUSAL SURFACES OF ERUPTING PERMANENT MOLARS? – RANDOMIZED CLINICAL TRIAL (artigo enviado para publicação)Referências bibliográficas:[1] Carvalho JC, Thylstrup A, Ekstrand KR. Results after 3 years of non-operative occlusal caries treatment of erupting permanent first molars. Community Dent Oral Epidemiol. 1992; 20: 187-92.• [2] Goncalves AF, de Oliveira Rocha R, Oliveira MD, Rodrigues CR. Clinical effectiveness of toothbrushes and toothbrushing methods of plaque removal on partially erupted occlusal surfaces. Oral Health Prev Dent. 2007; 5: 33-7.• [3] Nourallah AW, Splieth CH. Efficacy of occlusal plaque removal in erupting molars: a comparison of an electric toothbrush and the cross-toothbrushing technique. Caries research. 2004; 38: 91-4.• [4] Frazao P. Effectiveness of the bucco-lingual technique within a school-based supervised toothbrushing program on preventing caries: a randomized controlled trial. BMC Oral Health. 2011; 11: 11.• [5] Frazao P. [Cost-effectiveness of conventional and modified supervised toothbrushing in preventing caries in permanent molars among 5-year-old children]. Cad Saude Publica. 2012; 28: 281-90.", 
	"methodologies": [2, 3],
	"themes": [2, 4, 8],
	"paper_link": "http://www.teses.usp.br/teses/disponiveis/23/23132/tde-06032012-171649/pt-br.php",
	"abstract_authors": ["Gabriela", "Mariana Minatel Braga"],
	"paper_authors": ["Alessandra Reyes"],
	"study_relevance": 1,
	"posting_date":"2018-09-13 16:15:00",
	"last_update_date":"2018-09-13 16:15:00"}
]